<svg width="16" height="16" viewBox="0 0 16 16" fill="none" xmlns="http://www.w3.org/2000/svg">
<rect x="6" width="4" height="16" fill="#6d6dab"/>
<rect y="10" width="4" height="16" transform="rotate(-90 0 10)" fill="#6d6dab"/>
</svg>
